<?xml version="1.0" encoding="utf-8"?>
<!-- Generator: Adobe Illustrator 27.9.0, SVG Export Plug-In . SVG Version: 6.00 Build 0)  -->
<svg version="1.1" id="Layer_2" xmlns="http://www.w3.org/2000/svg" xmlns:xlink="http://www.w3.org/1999/xlink" x="0px" y="0px"
	 viewBox="0 0 100 100" style="enable-background:new 0 0 100 100;" xml:space="preserve">
<style type="text/css">
	.st0{fill:#FFFFFF;}
</style>
<path class="st0" d="M51.1,19.5c-16.7,0-30.3,13.6-30.3,30.3c0,6.4,2,12.3,5.4,17.2l-2.7,10.7l10.4-3c4.9,3.4,10.8,5.3,17.2,5.3
	c16.7,0,30.3-13.6,30.3-30.3C81.4,33,67.8,19.5,51.1,19.5z M68.2,63.2c-2.1,4.7-9.8,3.6-9.8,3.6c-21.5-4-25.8-23.4-25.8-23.4
	c-2.2-6.9,5-10.3,5-10.3c1.2-0.6,2.8-0.4,3.7,0.6c0.7,0.7,1.3,2.4,1.7,3.6c0.3,0.7,0.5,1.3,0.8,2c0.4,1,0.8,2.2,0.8,3.3
	c-0.1,1.2-1.1,2-1.8,2.8c-0.4,0.5-0.8,1-1.3,1.5c2.9,8.1,13.8,12.1,13.8,12.1c0.8-0.9,1.7-1.8,2.5-2.6c0.6-0.7,1.3-1.5,2.3-1.8
	c1.3-0.4,2.6,0.5,3.7,1c1.3,0.6,2.3,1.2,3.4,1.9c0.9,0.5,1.6,1.2,1.7,2.3C68.9,60.7,68.6,62.1,68.2,63.2z M79.5,0H20.5
	C9.2,0,0,9.2,0,20.5v58.9C0,90.8,9.2,100,20.5,100h58.9c11.3,0,20.5-9.2,20.5-20.5V20.5C100,9.2,90.8,0,79.5,0z M50.7,86.2
	c-6.4,0-12.5-1.7-17.7-4.6l-18.3,5.3l4.6-18.6c-3.2-5.5-5.1-11.8-5.1-18.6c0-20.2,16.4-36.5,36.5-36.5c20.2,0,36.5,16.3,36.5,36.5
	C87.2,69.8,70.8,86.2,50.7,86.2z"/>
</svg>
