<?xml version="1.0" encoding="utf-8"?>
<!-- Generator: Adobe Illustrator 27.9.0, SVG Export Plug-In . SVG Version: 6.00 Build 0)  -->
<svg version="1.1" id="Layer_1" xmlns="http://www.w3.org/2000/svg" xmlns:xlink="http://www.w3.org/1999/xlink" x="0px" y="0px"
	 viewBox="0 0 100 100" style="enable-background:new 0 0 100 100;" xml:space="preserve">
<style type="text/css">
	.st0{fill:#FFFFFF;}
</style>
<path class="st0" d="M79.5,0H20.5C9.2,0,0,9.2,0,20.5v58.9C0,90.8,9.2,100,20.5,100h58.9c11.3,0,20.5-9.2,20.5-20.5V20.5
	C100,9.2,90.8,0,79.5,0z M72.9,33.1c-0.8,8.1-4,27.6-5.7,36.6c-0.7,3.8-2.1,5.1-3.4,5.2c-2.9,0.3-5.1-2-7.9-3.8
	c-4.4-2.9-6.9-4.8-11.1-7.6c-4.9-3.3-1.7-5.1,1.1-8.1c0.7-0.8,13.5-12.6,13.7-13.7c0-0.1,0.1-0.6-0.2-0.9c-0.3-0.3-0.7-0.2-1-0.1
	c-0.4,0.1-7.5,4.8-21,14.2c-2,1.4-3.8,2.1-5.4,2c-1.8,0-5.2-1-7.8-1.9c-3.1-1-5.6-1.6-5.4-3.3c0.1-0.9,1.3-1.9,3.7-2.8
	C37,42.4,46.7,38.2,51.6,36.1c13.9-5.9,16.7-6.9,18.6-6.9c0.4,0,1.3,0.1,1.9,0.6c0.5,0.4,0.6,1,0.7,1.4C72.9,31.5,73,32.4,72.9,33.1
	z"/>
</svg>
